Statistical Learning B: Final Project
…
The whole data set contains 48 missing values; in light of the relatively large number of observations (952), the rows containing NA values will be removed from the data set prior to analysis.

sum(is.na(ds_fin)==TRUE)

## [1] 48

First, we investigate the rows with missing values to identify potential patterns.

In fact, most of the missing values are in the variable Pregnancies. The research paper provides no explanation for the high number of NAs in this variable. Furthermore, the NAs are present for both female and male individuals, so there is not a reason to suspect a pattern.

Thus, the rows containing missing values are removed from the data set.

ds_fin[rowSums(is.na(ds_fin)) > 0, ]

## # A tibble: 47 x 18
##    Age     Gender Family_Diabetes highBP PhysicallyActive    BMI Smoking Alcohol
##    <chr>   <chr>  <chr>           <chr>  <chr>             <dbl> <chr>   <chr>  
##  1 less t~ Female yes             no     more than half a~    NA no      no     
##  2 less t~ Female no              no     more than half a~    NA no      no     
##  3 50-59   Female yes             yes    none                 NA no      no     
##  4 less t~ Male   no              yes    more than half a~    NA no      no     
##  5 less t~ Male   yes             no     one hr or more       20 no      no     
##  6 less t~ Male   yes             no     more than half a~    21 yes     no     
##  7 less t~ Female yes             no     one hr or more       26 no      no     
##  8 less t~ Female yes             no     none                 21 no      yes    
##  9 less t~ Female yes             no     none                 21 no      yes    
## 10 less t~ Female yes             no     more than half a~    24 no      no     
## # ... with 37 more rows, and 10 more variables: Sleep <dbl>, SoundSleep <dbl>,
## #   RegularMedicine <chr>, JunkFood <chr>, Stress <chr>, BPLevel <chr>,
## #   Pregnancies <dbl>, Pdiabetes <chr>, UriationFreq <chr>, Diabetic <chr>
…
